----------------------------------------------------------------------------------------------------------------------------------------------------------------------------------------------------------------------------------------------------------------
+                                                                                                                                                                                                                                                              +
+                                                                                                                                                                                                                                                              +
+                                                                                                                                                                                                                                                              +
+                                                                                                                                                                                                                                                              +
+                                                                                                                                                                                                                                                              +
+                                                                                                                                                                                                                                                              +
+                                                                                                                                                                                                                                                              +
+                                                                                                                                                                                                                                                              +
+                                                                                                                                                                                                                                                              +
+                                                                                                                                                                                                                                                              +
+                                                                                                                                                                                                                                                              +
+                                                                                                                                                                                                                                                              +
+                                                                                                                                                                                                                                                              +
+                                                                                                                                                                                                                                                              +
+                                                                                                                                                                                                                                                              +
+                                                                                                                                                                                                                                                              +
+                                                                                                                                                                                                                                                              +
+                                                                                                                                                                                                                                                              +
+                                                                                                                                                                                                                                                              +
+                                                                                                                                                                                                                                                              +
+                                                                                                                                                                                                                                                              +
+                                                                                                                                                                                                                                                              +
+                                                                                                                                                                                                                                                              +
+                                                                                                                                                                                                                                                              +
+                                                                                                                                                                                                                                                              +
+                                                                                                                                                                                                                                                              +
+                                                                                                                                                                                                                                                              +
+                                                                                                                                                                                                                                                              +
+                                                                                                                                                                                                                                                              +
+                                                                                                                                                                                                                                                              +
+                                                                                                                                                                                                                                                              +
+                                                                                                                                                                                                                                                              +
+                                                                                                                                                                                                                                                              +
+                                                                                                                                                                                                                                                              +
+                                                                                                                                                                                                                                                              +
+                                                                                                                                                                                                                                                              +
+                                                                                                                                                                                                                                                              +
+                                                                                                                                                                                                                                                              +
+                                                                                                                                                                                                                                                              +
+                                                                                                                                                                                                                                                              +
+                                                                                                                                                                                                                                                              +
+                                                                                                                                                                                                                                                              +
+                                                                                                                                                                                                                                                              +
+                                                                                                                                                                                                                                                              +
+                                                                                                                                                                                                                                                              +
+                                                                                                                                                                                                                                                              +
+                                                                                                                                                                                                                                                              +
+                                                                                                                                                                                                                                                              +
+                                                                                                                                                                                                                                                              +
+                                                                                                                                                                                                                                                              +
+                                                                                                                                                                                                                                                              +
+                                                                                                                                                                                                                                                              +
+                                                                                                                                                                                                                                                              +
+                                                                                                                                                                                                                                                              +
+                                                                                                                                                                                                                                                              +
+                                                                                                                                                                                                                                                              +
+                                                                                                                                                                                                                                                              +
+                                                                                                                                                                                                                                                              +
+                                                                                                                                                                                                                                                              +
+                                                                                                                                                                                                                                                              +
+                                                                                                                                                                                                                                                              +
+                                                                                                                                                                                                                                                              +
+                                                                                                                                                                                                                                                              +
+                                                                                                                                                                                                                                                              +
+                                                                                                                                                                                                                                                              +
+                                                                                                                                                                                                                                                              +
+                                                                                                                                                                                                                                                              +
+                                                                                                                                                                                                                                                              +
+                                                                                                                                                                                                                                                              +
+                                                                                                                                                                                                                                                              +
+                                                                                                                                                                                                                                                              +
+                                                                                                                                                                                                                                                              +
+                                                                                                                                                                                                                                                              +
+                                                                                                                                                                                                                                                              +
+                                                                                                                                                                                                                                                              +
+                                                                                                                                                                                                                                                              +
+                                                                                                                                                                                                                                                              +
+                                                                                                                                                                                                                                                              +
+                                                                                                                                                                                                                                                              +
+                                                                                                                                                                                                                                                              +
+                                                                                                                                                                                                                                                              +
+                                                                                                                                                                                                                                                              +
+                                                                                                                                                                                                                                                              +
+                                                                                                                                                                                                                                                              +
+                                                                                                                                                                                                                                                              +
+                                                                                                                                                                                                                                                              +
+                                                                                                                                                                                                                                                              +
+                                                                                                                                                                                                                                                              +
+                                                                                                                                                                                                                                                              +
+                                                                                                                                                                                                                                                              +
+                                                                                                                                                                                                                                                              +
+                                                                                                                                                                                                                                                              +
+                                                                                                                                                                                                                                                              +
+                                                                                                                                                                                                                                                              +
+                                                                                                                                                                                                                                                              +
+                                                                                                                                                                                                                                                              +
+                                                                                                                                                                                                                                                              +
+                                                                                                                                                                                                                                                              +
+                                                                                                                                                                                                                                                              +
+                                                                                                                                                                                                                                                              +
+                                                                                                                                                                                                                                                              +
+                                                                                                                                                                                                                                                              +
+                                                                                                                                                                                                                                                              +
+                                                                                                                                                                                                                                                              +
+                                                                                                                                                                                                                                                              +
+                                                                                                                                                                                                                                                              +
+                                                                                                                                                                                                                                                              +
+                                                                                                                                                                                                                                                              +
+                                                                                                                                                                                                                                                              +
+                                                                                                                                                                                                                                                              +
+                                                                                                                                                                                                                                                              +
+                                                                                                                                                                                                                                                              +
+                                                                                                                                                                                                                                                              +
+                                                                                                                                                                                                                                                              +
+                                                                                                                                                                                                                                                              +
+                                                                                                                                                                                                                                                              +
+                                                                                                                                                                                                                                                              +
+                                                                                                                                                                                                                                                              +
+                                                                                                                                                                                                                                                              +
+                                                                                                                                                                                                                                                              +
+                                                                                                                                                                                                                                                              +
+                                                                                                                                                                                                                                                              +
+                                                                                                                                                                                                                                                              +
+                                                                                                                                                                                                                                                              +
+                                                                                                                                                                                                                                                              +
+                                                                                                                                                                                                                                                              +
+                                                                                                                                                                                                                                                              +
+                                                                                                                                                                                                                                                              +
+                                                                                                                                                                                                                                                              +
+                                                                                                                                                                                                                                                              +
+                                                                                                                                                                                                                                                              +
+                                                                                                                                                                                                                                                              +
+                                                                                                                                                                                                                                                              +
+                                                                                                                                                                                                                                                              +
+                                                                                                                                                                                                                                                              +
+                                                                                                                                                                                                                                                              +
+                                                                                                                                                                                                                                                              +
+                                                                                                                                                                                                                                                              +
+                                                                                                                                                                                                                                                              +
+                                                                                                                                                                                                                                                              +
+                                                                                                                                                                                                                                                              +
+                                                                                                                                                                                                                                                              +
+                                                                                                                                                                                                                                                              +
+                                                                                                                                                                                                                                                              +
+                                                                                                                                                                                                                                                              +
+                                                                                                                                                                                                                                                              +
+                                                                                                                                                                                                                                                              +
+                                                                                                                                                                                                                                                              +
+                                                                                                                                                                                                                                                              +
+                                                                                                                                                                                                                                                              +
+                                                                                                                                                                                                                                                              +
+                                                                                                                                                                                                                                                              +
+                                                                                                                                                                                                                                                              +
+                                                                                                                                                                                                                                                              +
+                                                                                                                                                                                                                                                              +
+                                                                                                                                                                                                                                                              +
+                                                                                                                                                                                                                                                              +
+                                                                                                                                                                                                                                                              +
+                                                                                                                                                                                                                                                              +
+                                                                                                                                                                                                                                                              +
+                                                                                                                                                                                                                                                              +
+                                                                                                                                                                                                                                                              +
+                                                                                                                                                                                                                                                              +
+                                                                                                                                                                                                                                                              +
+                                                                                                                                                                                                                                                              +
+                                                                                                                                                                                                                                                              +
+                                                                                                                                                                                                                                                              +
+                                                                                                                                                                                                                                                              +
+                                                                                                                                                                                                                                                              +
+                                                                                                                                                                                                                                                              +
+                                                                                                                                                                                                                                                              +
+                                                                                                                                                                                                                                                              +
+                                                                                                                                                                                                                                                              +
+                                                                                                                                                                                                                                                              +
+                                                                                                                                                                                                                                                              +
+                                                                                                                                                                                                                                                              +
+                                                                                                                                                                                                                                                              +
+                                                                                                                                                                                                                                                              +
+                                                                                                                                                                                                                                                              +
+                                                                                                                                                                                                                                                              +
+                                                                                                                                                                                                                                                              +
+                                                                                                                                                                                                                                                              +
+                                                                                                                                                                                                                                                              +
+                                                                                                                                                                                                                                                              +
+                                                                                                                                                                                                                                                              +
+                                                                                                                                                                                                                                                              +
+                                                                                                                                                                                                                                                              +
+                                                                                                                                                                                                                                                              +
+                                                                                                                                                                                                                                                              +
+                                                                                                                                                                                                                                                              +
+                                                                                                                                                                                                                                                              +
+                                                                                                                                                                                                                                                              +
+                                                                                                                                                                                                                                                              +
+                                                                                                                                                                                                                                                              +
+                                                                                                                                                                                                                                                              +
+                                                                                                                                                                                                                                                              +
+                                                                                                                                                                                                                                                              +
+                                                                                                                                                                                                                                                              +
+                                                                                                                                                                                                                                                              +
+                                                                                                                                                                                                                                                              +
+                                                                                                                                                                                                                                                              +
+                                                                                                                                                                                                                                                              +
+                                                                                                                                                                                                                                                              +
+                                                                                                                                                                                                                                                              +
+                                                                                                                                                                                                                                                              +
+                                                                                                                                                                                                                                                              +
+                                                                                                                                                                                                                                                              +
+                                                                                                                                                                                                                                                              +
+                                                                                                                                                                                                                                                              +
+                                                                                                                                                                                                                                                              +
+                                                                                                                                                                                                                                                              +
+                                                                                                                                                                                                                                                              +
+                                                                                                                                                                                                                                                              +
+--------------------------------------------------------------------------------------------------------------------------------------------------------------------------------------------------------------------------------------------------------------+
+                                                                                                                                                                                                                                                              +
+                                                                                                                                                                                                                                                              +
+                                                                                                                                                                                                                                                              +
+                                                                                                                                                                                                                                                              +
+                                                                                                                                                                                                                                                              +
+                                            _                                                                                                                                                                                                                 +
+                                        .+(` ')`.                                                                                                                                                                                                             +
+                                       :(   .    )                                                                                                                                                                                                            +
+                                       `.  (    ) )                                                                                                                                                                                                           +
+                                         ` _`  ) )                                                                                                                                                                                                            +
+                                            (   )                                                                                                                                                                                                             +
+                                             `-'                                                                                                                                                                                                              +
+                                                                                    ~~.                                                                                                                                                                       +
+                                                                                   (~  )                                                                                                                                                                      +
+                                                                                  ( _.)_)                                          (`~                                                                                                                        +
+                                                                                                                                  (. _)                                                                                                                       +
+                                                                                                                                                                                                                                                              +
+               |                                                                                                                                                                                                                                              +
+      .               /                                                                                                                                                                           _                                                           +
+       \       |                                                                        .--._  _                            _                                                                 .+(` ')`. _  _                                                  +
+                   /                                                              .-..=(   . '` ')`.                    .+(`  )`.                                                          .=:(   .    ) '` ')`.                                              +
+         \  ,g88R_                                                             .=(   (   .:(   .    )                  :(   .    )                                                         (   .( (   :(   .    )                                             +
+           d888(` `).                   _                                      (   .(   ( `.  (    ) )            .-.,_`.    (  ) )                                                       (   (  ` `-'`.  (    ) )                                            +
+  -  --==  888(     ).=--           .+(` ')`.                                 (   (  `-.__..` _`-,) )          .=(    )    (   ) )                                                         `- __._;:__..` _`-,) )                                             +
+ )         Y8P(       '`.          :(   .    )                                 `- __.'                         (   .- ( ` (    .--._  _                                                                                                                       +
+         .+(`(      .    )    .--  `.  (    ) )                                                               (   (  ( ) ((...(   . '` ')`.                      _                                                  _                                         +
+        ((    (..__.:'---'..=(   )   ` _`  ) )                                                                 `- _-( .=(   (   . (   .    )                    \e/                                                \e/                                        +
+ `.     `(       ) )       (   .  )     (   )  ._                                                                    ((   .(     `.  (    ) )                    |._                                                |._                                       +
+   )      ` __.:'   )     (   (   ))     `-'.:(`  )                                                                   `- __.'-.__..` _`-,) )                     |'."-._.-""--.-"-.__.'/                            |'."-._.-""--.-"-.__.'/                   +
+ )  )  ( )       --'       `- __.'         :(      ))                                                                                                            |  \                 /                             |  \       .-.       /                    +
+ .-'  (_.'          .')                    `(    )  ))                                                                                                           |   |                (                             |   |     (@.@)      (                    +
+                   (_  )                     `-+-.:'                                                                                                             |   |                 )                            |   |   '=.|m|.='     )                   +
+                                               +     -------           +                                                                                         |  /                 /                             |  /    .='`"``=.    /                    +
+               b $                             +      $$$  C   d       +                 ++++++                                                                  |.'                 (                              |.'                 (                     +
+               -----                         --+---  ------------      +                             +++++++++                                                   |.-"-.__.-""-.__.-"-.)                             |.-"-.__.-""-.__.-"-.)                    +
+                     +                      ---+----                   +             +++++    ++++++                                                             |                                                  |                                         +
+                    +++                  -------------                 +                                                                                         |                                                  |                                         +
+a       +          +  c+                                +              +          ++++                                       +++++++++                           |                                 +                |                                         +
++  p    +         +++B+++                             + ++             +                              ++++++                                        +            |                                 +                |                                         +
++$ +    A                                             + ++++           D        +++                                                                 +            f                                 [                1                                         +
----------------------------------------------------------------------------------------------------------------------------------------------------------------------------------------------------------------------------------------------------------------
